{
  "kernels": [
    {
      "id": 231,
      "name": "DO-recovery-static-fsck",
      "version": "3.8.0-25-generic"
    }
  ],
  "links": {
    "pages": {
      "last": "https://api.digitalocean.com/v2/droplets/3164494/kernels?page=124&per_page=1",
      "next": "https://api.digitalocean.com/v2/droplets/3164494/kernels?page=2&per_page=1"
    }
  },
  "meta": {
    "total": 124
  }
}
